0,0.96729,1.2459,0.9419,0.89108
2,0.86845,1.4529,0.97002,0.88596
4,0.83698,1.6324,0.95305,0.90507
6,0.82637,1.662,0.96395,0.89967
8,0.84174,1.6456,0.96385,0.90577
10,0.8252,1.6637,0.96433,0.90882
12,0.83121,1.6948,0.95402,0.9279
14,0.8398,1.6803,0.96398,0.92911
16,0.84017,1.7104,0.95181,0.93549
18,0.83462,1.6883,0.96756,0.90487
20,0.83576,1.718,0.96566,0.92192
22,0.82683,1.7707,0.94647,0.93357
24,0.83845,1.7326,0.96378,0.93839
26,0.82404,1.7285,0.9581,0.91173
28,0.82032,1.7104,0.96729,0.90192
30,0.82678,1.712,0.97021,0.89846
32,0.84389,1.8169,0.91454,0.95895
34,0.83029,1.7153,0.96149,0.91003
36,0.82738,1.7187,0.96518,0.90022
38,0.83769,1.7427,0.95632,0.91978
40,0.82405,1.6691,0.97252,0.90078
42,0.82658,1.6623,0.98356,0.87557
44,0.83662,1.615,0.99489,0.87916
46,0.83435,1.6386,0.99341,0.86875
48,0.83068,1.6028,0.99002,0.86294
50,0.82849,1.5291,0.99312,0.85183
52,0.79081,1.3795,1.0244,0.76381
54,0.76301,1.23,1.0529,0.70728
56,0.69561,0.99408,1.0762,0.5868
58,0.73299,1.1315,1.0589,0.64539
60,0.6609,0.89255,1.0897,0.54804
62,0.65868,0.84313,1.0928,0.54293
64,0.66237,0.87183,1.0891,0.55339
66,0.64295,0.79578,1.102,0.53896
68,0.64479,0.79529,1.0899,0.52682
70,0.67295,0.84605,1.0888,0.55773
72,0.63346,0.72694,1.1003,0.51291
74,0.71868,0.92344,1.0818,0.60016
76,0.65652,0.75694,1.0951,0.53443
78,0.65081,0.73508,1.1049,0.53132
80,0.64981,0.71826,1.1081,0.52586
82,0.63379,0.70576,1.1004,0.51926
84,0.61408,0.67524,1.1071,0.49868
86,0.62587,0.68984,1.1075,0.50772
88,0.60357,0.66346,1.1113,0.48844
90,0.57661,0.61616,1.1126,0.4711
92,0.61549,0.67375,1.1033,0.50469
94,0.63078,0.70159,1.1032,0.5161
96,0.58581,0.64239,1.1178,0.47831
98,0.56426,0.61441,1.1119,0.46677
100,0.58071,0.65919,1.1069,0.4768
102,0.57086,0.62037,1.1146,0.47662
104,0.57243,0.62359,1.1114,0.47607
106,0.55804,0.60645,1.1175,0.45887
108,0.56971,0.64286,1.1124,0.4759
110,0.66389,0.83087,1.0953,0.57453
112,0.55521,0.63222,1.1095,0.46734
114,0.60558,0.70067,1.1103,0.50168
116,0.55713,0.58106,1.1216,0.47078
118,0.60696,0.72915,1.1072,0.51306
120,0.55405,0.59192,1.1186,0.45191
