0,1.0651,0.64001,0.99065,0.90609
2,1.0252,0.53378,0.99881,0.8863
4,1.0372,0.50998,1.002,0.89671
6,1.0282,0.52768,1.0004,0.87835
8,1.0536,0.52468,0.9927,0.92112
10,1.034,0.46685,1.0007,0.89792
12,1.0151,0.48666,1.0077,0.87027
14,1.0481,0.50461,1.002,0.90673
16,1.0617,0.50794,0.99482,0.91689
18,1.0421,0.46311,1.0064,0.89035
20,1.0386,0.4783,0.99296,0.9053
22,1.0077,0.45859,0.99945,0.86642
24,1.0346,0.45199,0.99894,0.90366
26,1.0197,0.44608,1.0015,0.87117
28,1.0348,0.46456,1.0025,0.89409
30,1.0089,0.45536,1.0051,0.87606
32,1.0095,0.42088,1.0072,0.87671
34,0.97727,0.43595,1.0047,0.85554
36,0.9768,0.39522,1.0132,0.84276
38,0.95462,0.42338,1.0124,0.84199
40,0.89686,0.33872,1.0222,0.7735
42,0.84949,0.35566,1.0276,0.75175
44,0.78604,0.3253,1.041,0.68866
46,0.79305,0.33492,1.0345,0.68347
48,0.75817,0.32173,1.0445,0.66018
50,0.81019,0.32158,1.0343,0.69799
52,0.79914,0.30386,1.0455,0.69151
54,0.76893,0.2905,1.034,0.68049
56,0.77661,0.32457,1.0456,0.68836
58,0.78605,0.31405,1.0415,0.68691
60,0.7679,0.29948,1.033,0.67863
62,0.77557,0.29027,1.0301,0.68883
64,0.8087,0.29192,1.0316,0.69675
66,0.78597,0.31779,1.0341,0.69417
68,0.78626,0.30876,1.0367,0.67293
70,0.77573,0.29294,1.0361,0.65887
72,0.77727,0.30805,1.0431,0.67443
74,0.7905,0.31353,1.0408,0.67437
76,0.78138,0.29282,1.042,0.68251
78,0.78126,0.2957,1.0403,0.67347
80,0.78004,0.32644,1.0447,0.68398
82,0.77921,0.3088,1.0361,0.67323
84,0.79403,0.30269,1.0377,0.69794
86,0.77607,0.27959,1.0365,0.66462
88,0.78957,0.30726,1.0424,0.67771
90,0.783,0.29709,1.0415,0.67503
92,0.76777,0.28243,1.0422,0.6639
94,0.78656,0.27137,1.0346,0.68701
96,0.7814,0.2867,1.0328,0.68315
98,0.78784,0.27656,1.0337,0.69516
100,0.78498,0.25567,1.031,0.70203
102,0.79501,0.28251,1.0334,0.68552
104,0.797,0.26898,1.0258,0.67916
106,0.79142,0.27957,1.0342,0.66992
108,0.74688,0.28354,1.0374,0.63821
110,0.77168,0.28628,1.038,0.65969
112,0.75159,0.28106,1.0434,0.65669
114,0.76818,0.28668,1.0331,0.65777
116,0.7545,0.29551,1.0417,0.6454
118,0.77966,0.27819,1.0335,0.67676
120,0.77873,0.286,1.0348,0.68162
