0,1.0304,1.102,1.0263,0.94903
2,0.93746,1.3842,1.0092,0.84909
4,0.88431,1.5572,1.0027,0.83943
6,0.86033,1.6716,1.0024,0.83214
8,0.85001,1.7098,1.0107,0.812
10,0.8504,1.7935,1.0194,0.81989
12,0.84383,1.8655,1.0122,0.86064
14,0.85443,1.7823,1.0209,0.84299
16,0.86716,1.7632,1.0187,0.87313
18,0.86289,1.792,1.0334,0.85284
20,0.83802,1.8391,1.0322,0.84115
22,0.86203,1.7341,1.041,0.85778
24,0.85115,1.7724,1.0371,0.85558
26,0.84627,1.8016,1.0432,0.84947
28,0.84975,1.8115,1.0411,0.86206
30,0.86347,1.7308,1.0464,0.85531
32,0.85079,1.7487,1.0522,0.8515
34,0.84014,1.8341,1.0477,0.85309
36,0.83896,1.7766,1.0491,0.85831
38,0.84602,1.822,1.0465,0.86031
40,0.85437,1.7982,1.0465,0.88056
42,0.83719,1.7311,1.0557,0.84813
44,0.85135,1.8008,1.0564,0.86214
46,0.85048,1.7378,1.0572,0.86
48,0.83503,1.6475,1.0741,0.81102
50,0.83177,1.6874,1.0663,0.82401
52,0.82359,1.5775,1.0837,0.77644
54,0.7958,1.4669,1.098,0.73057
56,0.74728,1.2751,1.1159,0.65421
58,0.67453,1.0394,1.1402,0.55269
60,0.65621,0.96177,1.1504,0.53825
62,0.65386,0.94465,1.1542,0.54827
64,0.67795,0.99669,1.1499,0.55267
66,0.64967,0.94184,1.1551,0.52001
68,0.65573,0.93735,1.1523,0.53438
70,0.6718,1.0314,1.1433,0.55917
72,0.68053,1.001,1.1541,0.5629
74,0.68417,1.0223,1.151,0.56664
76,0.65373,0.95471,1.1546,0.54819
78,0.64313,0.93377,1.1547,0.52806
80,0.62987,0.84286,1.1676,0.50971
82,0.63076,0.80653,1.1702,0.50848
84,0.64623,0.81108,1.1738,0.50784
86,0.61401,0.74671,1.176,0.49531
88,0.58853,0.68948,1.1824,0.47315
90,0.60639,0.72525,1.1804,0.48572
92,0.59332,0.67913,1.1837,0.47542
94,0.56281,0.61878,1.1973,0.45729
96,0.58371,0.68959,1.181,0.46987
98,0.54791,0.65205,1.1919,0.44951
100,0.61519,0.73824,1.1797,0.50402
102,0.55362,0.65093,1.1852,0.46684
104,0.53358,0.6441,1.1853,0.45064
106,0.56448,0.67702,1.1956,0.46192
108,0.56266,0.66301,1.1832,0.46396
110,0.5813,0.69107,1.1872,0.48071
112,0.53132,0.62483,1.1892,0.44438
114,0.61071,0.75646,1.1775,0.5059
116,0.5539,0.65014,1.1844,0.46962
118,0.59305,0.71881,1.1788,0.47919
120,0.53811,0.65411,1.1844,0.45273
