0,1.8959,0.1771,-0.62049,-4.1343
2,2.1007,0.079299,-0.35616,-1.1903
4,1.977,0.039893,-0.43768,-1.5247
6,2.1299,0.021435,-0.39661,-1.2751
8,2.1747,0.0059834,-0.38435,-1.1037
10,2.1644,0.055499,-0.3361,-0.92975
12,2.4139,0.062685,-0.4712,-1.637
14,2.6268,0.12883,-0.56593,-2.2075
16,2.6702,0.21018,-0.536,-2.1074
18,2.4669,0.16269,-0.42733,-1.3354
20,2.1723,0.065397,-0.50725,-2.0388
22,2.0755,0.060297,-0.53209,-2.071
24,2.1288,0.24,-0.54115,-2.4691
26,1.9174,0.084853,-0.48481,-1.6562
28,1.838,0.13189,-0.55604,-2.0492
30,1.5164,0.14703,-0.55907,-1.9251
32,1.0987,0.17842,-0.29007,-0.64667
34,0.92004,0.36676,-0.85944,-3.7351
36,-0.20225,0.30892,-0.35208,-0.33432
38,-1.2477,0.34446,-0.10018,1.1685
40,-2.2457,0.82068,0.08956,2.8642
42,-3.0664,1.467,0.33248,4.2074
44,-2.8851,1.3808,0.13911,3.4567
46,-2.8853,1.3436,0.12689,3.056
48,-2.9211,1.334,0.2119,3.7105
50,-3.0427,1.5135,0.093431,3.2611
52,-3.0335,1.4267,0.027984,3.3476
54,-3.081,1.5265,0.14075,3.6884
56,-2.9016,1.2842,0.22335,3.7428
58,-3.2207,1.6019,0.081877,3.6215
60,-3.2513,1.5775,0.16728,4.0504
62,-3.3911,1.7716,0.26713,4.6749
64,-3.3745,1.6143,0.24126,4.3018
66,-3.43,1.7413,0.27219,4.3605
68,-3.4873,1.7201,0.23035,4.6038
70,-3.4073,1.672,0.32712,4.4616
72,-3.3209,1.5422,0.23589,4.3306
74,-3.4458,1.6961,0.18864,4.241
76,-3.4387,1.7695,0.24701,4.4855
78,-3.3587,1.6995,0.38868,4.4783
80,-3.4339,1.7479,0.27049,4.2616
82,-3.4536,1.6277,0.40388,4.9577
84,-3.5469,1.8558,0.01223,3.8103
86,-3.4763,1.6029,0.22492,4.2322
88,-3.3639,1.5033,0.33237,4.4293
90,-3.4429,1.5465,0.37005,4.7641
92,-3.4595,1.7204,0.11857,3.9271
94,-3.3416,1.6048,0.31982,4.1525
96,-3.4743,1.6731,0.20642,4.1433
98,-3.4814,1.8099,0.246,4.3621
100,-3.4737,1.8023,0.23944,4.111
102,-3.4321,1.6519,0.24645,4.4672
104,-3.4093,1.6068,0.2673,4.6055
106,-3.4637,1.7291,0.34898,4.654
108,-3.4723,1.7128,0.25904,4.482
110,-3.5541,1.8235,0.19701,4.5846
112,-3.4246,1.657,0.37561,4.4961
114,-3.424,1.581,0.36362,4.9043
116,-3.4596,1.5528,0.38764,4.8431
118,-3.4787,1.6457,0.3888,4.8769
120,-3.5051,1.6695,0.26846,4.7377
