0,1.0404,0.65978,0.9119,0.87958
2,1.0207,0.68152,0.91229,0.88483
4,1.0092,0.72764,0.90329,0.884
6,1.0219,0.74891,0.90685,0.87894
8,1.0162,0.74448,0.91057,0.86351
10,1.021,0.75805,0.87317,0.8749
12,0.99985,0.7874,0.90887,0.86478
14,0.99898,0.80723,0.90503,0.89056
16,0.98705,0.87872,0.90616,0.87429
18,0.99033,0.87911,0.90167,0.88576
20,1.0073,0.955,0.91402,0.88816
22,1.0105,0.96787,0.90228,0.91644
24,0.99483,0.9467,0.90112,0.90123
26,1.0128,1.0389,0.91093,0.91594
28,0.996,1.0321,0.90761,0.90149
30,0.98522,1.0005,0.90423,0.88026
32,1.0075,1.058,0.90156,0.91985
34,0.9876,1.0668,0.91119,0.9061
36,1.0087,1.0584,0.92154,0.91111
38,0.99948,1.1237,0.90838,0.93078
40,1.0167,1.0879,0.92253,0.92716
42,0.99129,1.0735,0.90985,0.90618
44,0.96002,1.1345,0.92743,0.88455
46,0.97158,1.1301,0.90362,0.90423
48,0.951,1.0908,0.93044,0.88278
50,0.91354,1.0734,0.94028,0.85298
52,0.87171,1.0368,0.95722,0.79335
54,0.81068,0.97064,0.97148,0.73689
56,0.72401,0.87676,1.0013,0.65129
58,0.71539,0.85411,0.99319,0.63107
60,0.57863,0.66965,1.013,0.4906
62,0.574,0.65258,1.017,0.48454
64,0.57206,0.6438,1.0128,0.48345
66,0.55301,0.62504,1.0178,0.46117
68,0.54057,0.62954,1.0241,0.45922
70,0.55655,0.66796,1.0216,0.4743
72,0.5864,0.70385,1.019,0.5034
74,0.53693,0.61025,1.0284,0.4624
76,0.58276,0.70673,1.0155,0.49183
78,0.60377,0.71512,1.0174,0.51276
80,0.55732,0.65142,1.0214,0.4687
82,0.55066,0.64914,1.021,0.45748
84,0.57828,0.67618,1.0211,0.49089
86,0.60497,0.70968,1.0181,0.502
88,0.60201,0.70882,1.0198,0.51333
90,0.61376,0.7386,1.0137,0.51408
92,0.704,0.87077,1.0001,0.60943
94,0.60443,0.69198,1.0198,0.51381
96,0.59634,0.69555,1.0147,0.49387
98,0.59377,0.67822,1.0229,0.49806
100,0.55372,0.64194,1.0325,0.46947
102,0.5873,0.69328,1.021,0.49396
104,0.54309,0.63418,1.0272,0.4584
106,0.53679,0.62673,1.0262,0.45724
108,0.57912,0.72017,1.0145,0.51212
110,0.57505,0.70243,1.0209,0.48301
112,0.56834,0.65298,1.0159,0.48301
114,0.60548,0.71949,1.0183,0.51462
116,0.62983,0.75929,1.0074,0.53464
118,0.61469,0.72181,1.0172,0.52429
120,0.58081,0.66416,1.0253,0.4883
