0,-0.60593,4.1898,5.5386,9.6961
2,-1.464,4.2317,5.7746,10.259
4,-1.6773,5.2082,6.4809,11.316
6,-1.8745,5.418,6.3227,10.647
8,-1.843,5.3721,6.0604,10.613
10,-1.9301,5.3912,5.8735,10.293
12,-1.9852,5.344,5.8687,10.35
14,-1.9057,5.2411,5.8716,10.736
16,-1.8882,5.3716,5.6747,9.8304
18,-1.9542,5.2793,5.7164,10.704
20,-1.8887,5.1867,5.6311,10.628
22,-1.8913,5.298,5.7671,10.698
24,-1.9022,5.3282,5.5546,10.386
26,-1.8908,5.3081,5.6126,10.144
28,-1.9228,5.4095,5.4635,9.554
30,-2.0923,5.4982,5.4543,9.372
32,-1.9431,5.5495,5.5029,9.7386
34,-1.8984,5.3473,5.4702,10.12
36,-1.9589,5.4862,5.4583,9.5288
38,-2.064,5.5698,5.3693,9.3737
40,-1.8289,5.5199,5.5579,10.315
42,-1.8812,5.5338,5.5737,10.017
44,-1.8823,5.4861,5.6992,10.857
46,-1.8896,5.5879,5.4987,9.733
48,-1.9838,5.5124,5.5433,10.016
50,-2.0194,5.6868,5.4834,9.5302
52,-1.9799,5.6032,5.591,10.362
54,-2.0849,5.66,5.4864,9.9699
56,-2.123,5.7916,5.4284,9.7128
58,-2.1802,5.6371,5.5212,10.471
60,-2.3452,5.9184,5.373,10.231
62,-2.4118,5.7709,5.4684,11.417
64,-2.8075,5.8766,5.5691,12.765
66,-3.0298,6.1614,5.681,13.198
68,-3.4031,6.4012,5.5251,14.092
70,-3.1334,6.3461,5.6782,13.895
72,-3.2548,6.3888,5.5829,13.886
74,-3.2991,6.3756,5.4777,14.123
76,-3.2925,6.3743,5.4915,13.57
78,-3.3086,6.4046,5.5213,14.009
80,-3.2189,6.2,5.5338,14.872
82,-3.3912,6.3023,5.4295,14.855
84,-3.3886,6.2728,5.4075,14.58
86,-3.4289,6.1322,5.4252,14.519
88,-3.2918,6.3327,5.4493,14.583
90,-3.4909,6.3774,5.4859,15.171
92,-3.7289,6.6681,5.4153,15.332
94,-3.6938,6.5501,5.4057,15.39
96,-3.4447,6.2121,5.4156,14.68
98,-3.6518,6.6116,5.4183,15.124
100,-3.6182,6.5593,5.4293,14.952
102,-3.7235,6.6218,5.4104,15.117
104,-3.6599,6.5598,5.4428,15.535
106,-3.6074,6.5371,5.4652,15.075
108,-3.6989,6.7774,5.4526,15.343
110,-3.6013,6.5419,5.4721,15.196
112,-3.5484,6.4581,5.4785,14.74
114,-3.574,6.4443,5.4829,15.124
116,-3.6659,6.63,5.4942,15.455
118,-3.583,6.5493,5.4958,15.126
120,-3.6333,6.6115,5.5085,15.087
