0,1.0377,0.85475,1.0134,1.0308
2,1.0773,0.70883,1.0412,0.96753
4,1.1044,0.65535,1.0504,0.94061
6,1.0895,0.61,1.0594,0.8997
8,1.1203,0.61557,1.0223,0.9484
10,1.1174,0.54223,1.0714,0.89243
12,1.1295,0.55389,1.0571,0.90829
14,1.104,0.50556,1.0813,0.86158
16,1.1325,0.52106,1.0771,0.88366
18,1.1059,0.50431,1.0824,0.86059
20,1.1283,0.48912,1.0822,0.87267
22,1.1281,0.47797,1.0901,0.85761
24,1.1035,0.48211,1.0855,0.85198
26,1.1008,0.45032,1.1032,0.83568
28,1.1226,0.49196,1.0937,0.86454
30,1.1238,0.45492,1.1018,0.85312
32,1.1273,0.4832,1.0954,0.86804
34,1.1289,0.45862,1.0971,0.85937
36,1.1145,0.44946,1.1037,0.84026
38,1.1056,0.45253,1.1023,0.84431
40,1.1119,0.43299,1.1023,0.84345
42,1.0892,0.4321,1.1065,0.81193
44,1.1153,0.45355,1.1052,0.8408
46,1.1138,0.46712,1.1033,0.85905
48,1.086,0.41383,1.1086,0.82371
50,1.0926,0.40623,1.11,0.83035
52,1.0969,0.43858,1.1139,0.83633
54,1.0842,0.42216,1.1087,0.81716
56,1.0871,0.42033,1.1088,0.82581
58,1.1084,0.44175,1.1069,0.84384
60,1.0852,0.4582,1.0988,0.83872
62,1.0723,0.41031,1.1069,0.81882
64,1.0844,0.41253,1.0999,0.83585
66,1.1003,0.44964,1.0973,0.87658
68,1.0986,0.40749,1.1038,0.85351
70,1.0742,0.44539,1.1044,0.83067
72,1.1006,0.40926,1.1044,0.85601
74,1.0954,0.46887,1.1035,0.85486
76,1.0759,0.44163,1.0946,0.84604
78,1.0765,0.41464,1.0998,0.84162
80,1.0767,0.39925,1.0993,0.83942
82,1.0656,0.40617,1.0949,0.84132
84,1.0678,0.40177,1.099,0.83021
86,1.0683,0.38844,1.0987,0.83121
88,1.0669,0.39859,1.0909,0.84618
90,1.0814,0.46591,1.0996,0.83946
92,1.0777,0.42721,1.1006,0.83172
94,1.0619,0.40363,1.0996,0.82591
96,1.0609,0.42406,1.0969,0.82122
98,1.0722,0.43247,1.0988,0.83356
100,1.0731,0.44024,1.0938,0.83956
102,1.0705,0.42595,1.0943,0.84183
104,1.0543,0.38871,1.0906,0.84509
106,1.0539,0.42404,1.0922,0.83194
108,1.0559,0.41681,1.0918,0.8417
110,1.059,0.43232,1.0898,0.84364
112,1.0642,0.42373,1.0968,0.83224
114,1.0516,0.42046,1.0942,0.82966
116,1.0412,0.41666,1.0887,0.81722
118,1.0718,0.43076,1.0884,0.86381
120,1.0689,0.45946,1.0937,0.84315
