0,1.5714,1.0562,1.5078,1.4157
2,1.5653,0.93049,1.5259,1.4269
4,1.5624,0.75396,1.5184,1.4289
6,1.5497,0.66545,1.5133,1.4689
8,1.5501,0.5861,1.5029,1.4712
10,1.5513,0.57002,1.4995,1.4993
12,1.5468,0.56983,1.5092,1.4589
14,1.5472,0.62932,1.5097,1.4496
16,1.54,0.6045,1.509,1.4524
18,1.5396,0.6136,1.5146,1.4629
20,1.5408,0.61081,1.5075,1.4562
22,1.5271,0.63267,1.5068,1.436
24,1.524,0.61742,1.516,1.4155
26,1.5125,0.58216,1.5066,1.4274
28,1.5238,0.64771,1.5105,1.4685
30,1.5023,0.60788,1.5196,1.4178
32,1.4853,0.63424,1.5148,1.4268
34,1.4541,0.66123,1.5252,1.3885
36,1.3891,0.61104,1.5158,1.3512
38,1.345,0.63415,1.5293,1.2924
40,1.2573,0.59648,1.5371,1.2353
42,1.1653,0.54664,1.5512,1.1354
44,1.1377,0.58131,1.5577,1.1692
46,1.1553,0.58631,1.5595,1.1649
48,1.1577,0.61063,1.5579,1.1263
50,1.119,0.62564,1.5656,1.0717
52,1.1202,0.62448,1.5646,1.0746
54,1.1107,0.65763,1.568,1.0855
56,1.1122,0.66406,1.566,1.0819
58,1.1089,0.65114,1.552,1.0838
60,1.1068,0.68123,1.5659,1.0722
62,1.0958,0.65939,1.5699,1.0872
64,1.1056,0.69986,1.5652,1.0674
66,1.0893,0.69239,1.5714,1.0493
68,1.1031,0.70973,1.5673,1.0783
70,1.1018,0.72832,1.5736,1.0628
72,1.0894,0.71789,1.5795,1.0675
74,1.0891,0.72433,1.5773,1.0412
76,1.073,0.7705,1.5836,1.0388
78,1.0687,0.72254,1.5713,1.0646
80,1.0619,0.78383,1.577,1.0584
82,1.0253,0.75424,1.5826,1.0077
84,0.98998,0.75453,1.5931,0.9839
86,0.95804,0.76748,1.5954,0.95565
88,0.9429,0.77023,1.6015,0.96174
90,0.9572,0.7462,1.5966,0.95955
92,0.93688,0.77446,1.5985,0.97019
94,0.92871,0.79591,1.6012,0.9239
96,0.94995,0.822,1.5925,0.94406
98,0.94544,0.77494,1.5856,0.94927
100,0.92704,0.84413,1.6001,0.91167
102,0.92234,0.77849,1.5986,0.92852
104,0.90574,0.7995,1.6047,0.91337
106,0.92792,0.8326,1.6016,0.9319
108,0.93528,0.85601,1.5883,0.91633
110,0.90092,0.83394,1.6111,0.91765
112,0.90111,0.8262,1.6062,0.91148
114,0.90998,0.85314,1.6054,0.89418
116,0.91059,0.8104,1.6125,0.91377
118,0.89843,0.89477,1.6113,0.91387
120,0.89837,0.88341,1.613,0.90467
