   9.2399877e+02   9.5691897e+02   9.8509282e+02   1.0216661e+03
   1.4930975e+00   2.9367654e-01   5.2017814e-01   2.6292871e-01
   1.7081743e+00   4.7579906e+00   1.7190440e+01   2.3961219e+01
   1.9999838e+01   7.8378316e+00   1.2999460e-03   7.3609001e+00