Wavelength (nm),SDC_EG150X_TAT4_40MeOH_5C
1100.031738,0.161293417
1098.97583,0.107996821
1098.036621,0.154227793
1096.979126,0.140851826
1096.038452,0.129735366
1094.97937,0.112549678
1094.037231,0.13310875
1092.976563,0.128198832
1092.033081,0.139714927
1090.970703,0.130314425
1090.025757,0.146212578
1088.961792,0.130367652
1088.015503,0.150734857
1086.949951,0.14316161
1086.002075,0.149015158
1085.053589,0.139511585
1083.985718,0.140038505
1083.035767,0.143433049
1081.966309,0.15353556
1081.015015,0.147532031
1079.94397,0.163710639
1078.991211,0.152582169
1078.03772,0.151153088
1076.964355,0.153834194
1076.009521,0.142154679
1075.054077,0.170276463
1073.978271,0.165627226
1073.021362,0.167396084
1071.944092,0.159983143
1070.985718,0.161561146
1070.026733,0.163901299
1068.947144,0.181012288
1067.986816,0.174086824
1067.025757,0.183597937
1065.943848,0.184078798
1064.981323,0.184075192
1064.018311,0.191321716
1063.054565,0.196058989
1061.969482,0.184531316
1061.004395,0.187753156
1060.038574,0.203864262
1058.951294,0.194754556
1057.984131,0.202475146
1057.016235,0.197243407
1056.047852,0.216302767
1054.95752,0.216447145
1053.987671,0.215714276
1053.01709,0.219171897
1052.045898,0.230513513
1050.952637,0.229655445
1049.980103,0.235696659
1049.006836,0.23534973
1048.032959,0.246348351
1047.058472,0.248507604
1045.961426,0.260142654
1044.985596,0.256799966
1044.009155,0.267033666
1043.031982,0.272072256
1042.054199,0.28264752
1040.953369,0.284488082
1039.974243,0.283625811
1038.994385,0.297006488
1038.014038,0.296160102
1037.032959,0.312344313
1036.051147,0.321178019
1034.946045,0.329809696
1033.962891,0.327147007
1032.979248,0.331548989
1031.994873,0.332801998
1031.009888,0.338790417
1030.024292,0.33577612
1029.037964,0.337721914
1028.051147,0.331842095
1026.940063,0.331038207
1025.951904,0.333911955
1024.963013,0.330785722
1023.973511,0.333786041
1022.983398,0.329201281
1021.992615,0.335654557
1021.001221,0.335842073
1020.009216,0.340904981
1019.016541,0.348057658
1018.023254,0.352672249
1017.029358,0.356792271
1016.03479,0.364908576
1015.039673,0.373895675
1014.043884,0.383428067
1013.047424,0.392789781
1012.050415,0.402641982
1011.052734,0.420360893
1010.054443,0.433684766
1009.055542,0.451968581
1008.05603,0.46714294
1007.055847,0.479302883
1006.055054,0.495346546
1005.053711,0.513465822
1004.051697,0.528090954
1003.049011,0.540623903
1002.045776,0.5595752
1001.041931,0.569013298
1000.037415,0.58678925
999.0322876,0.595127702
998.0266113,0.617518067
997.0202637,0.624246895
996.0133057,0.638159633
995.0057373,0.650610805
993.9975586,0.663697004
992.9887695,0.672486723
991.9793701,0.683612466
990.9693604,0.693773985
989.9587402,0.715337455
988.9474487,0.724469066
988.0621338,0.728896201
987.0497437,0.73948884
986.0367432,0.751568735
985.0231934,0.756721735
984.0089722,0.752838433
982.9941406,0.756942749
981.9787598,0.749975145
980.9627075,0.741326809
979.946106,0.725694478
979.0560303,0.71294874
978.038269,0.690423191
977.0198975,0.663931787
976.0009155,0.637180328
974.9813843,0.616839647
973.9611816,0.590195477
972.9404297,0.568062007
972.0467529,0.549783826
971.0248413,0.532331407
970.0023804,0.517954886
968.979248,0.502657473
967.9555664,0.492682368
967.0593872,0.481411994
966.0345459,0.474420488
965.0091553,0.464560509
963.9831543,0.458179206
962.956543,0.445010364
962.0578003,0.435675651
961.0300903,0.424888492
960.00177,0.404693514
958.9729004,0.391565263
957.9434204,0.373317868
957.0421143,0.359105945
956.0115356,0.341899306
954.9803467,0.32621786
953.9486084,0.310150564
953.0452881,0.299071372
952.0124512,0.286052883
950.9789429,0.275615066
949.9449463,0.264792621
949.0396729,0.258032471
948.0045166,0.248111486
946.96875,0.241776884
946.0620117,0.23680751
945.0252075,0.230851039
943.987793,0.225820571
942.9498291,0.222362056
942.0410767,0.219751433
941.0020142,0.216924682
939.9623413,0.215268239
939.0521851,0.213840008
938.0114136,0.212149188
936.9700928,0.212542504
936.0584717,0.211382598
935.0160522,0.211926609
933.9730835,0.212134928
933.0599976,0.211622089
932.0159302,0.214152187
930.9713135,0.216593698
930.0567627,0.217557907
929.0110474,0.221068665
927.9647827,0.222857818
927.0488281,0.225701943
926.0014648,0.228381276
924.9535522,0.22988674
924.0361328,0.230392322
922.9871216,0.230668068
921.937561,0.228207693
921.0187378,0.226546988
919.9680786,0.224278837
919.0483398,0.220561475
917.9966431,0.216562927
916.9443359,0.213850215
916.0231323,0.210590139
914.9698486,0.207473978
914.0477295,0.204009667
912.9933472,0.202084199
911.9384155,0.198366597
911.0148315,0.197599247
909.9588623,0.195182726
909.0344238,0.193894103
907.977356,0.191951692
907.052002,0.191448972
905.9938965,0.192011178
904.9352417,0.191177368
904.0084229,0.190947324
902.9487305,0.192087114
902.0210571,0.19352515
900.9602661,0.195398256
900.0316772,0.195793301
898.9699097,0.19947049
898.0404053,0.201847598
896.9775391,0.204874679
896.0471191,0.208170101
894.9832764,0.212120965
894.0519409,0.21695745
892.9869995,0.224197581
892.0548096,0.22928834
890.9888916,0.238627896
890.0557251,0.246736661
888.9887695,0.257971883
888.0547485,0.268034756
886.9867554,0.280017227
886.0518188,0.292714715
884.9827881,0.308262646
884.046936,0.31982106
882.9769287,0.329968542
882.0402222,0.338329583
880.9691162,0.345390558
880.0314941,0.348237395
878.9594727,0.347026497
878.0209351,0.344210297
876.947876,0.336784929
876.0084229,0.32663551
874.9343262,0.316773534
873.9940796,0.304603636
873.0533447,0.294272721
871.9777832,0.280259967
871.0361938,0.27124238
869.9595947,0.260539532
869.0171509,0.252016991
867.9395752,0.242973611
866.9962158,0.236309707
866.0524902,0.230160356
864.9733887,0.223812908
864.0288086,0.219681799
862.9487305,0.215765074
862.0032349,0.212466836
861.057312,0.210728943
859.975769,0.207776845
859.0289917,0.207122967
857.9464722,0.20461911
856.9988403,0.203885049
856.0507813,0.20241639
854.9667969,0.202169001
854.0178833,0.201254502
852.9329224,0.201039732
851.9831543,0.201921269
851.03302,0.200676471
849.9465942,0.20220232
848.9955444,0.201222569
848.0441284,0.201044545
846.9562378,0.202500343
846.0039673,0.203536347
845.0512695,0.204939336
843.9619751,0.204475939
843.0084229,0.206302404
842.0545044,0.207266077
840.9637451,0.207560509
840.0089722,0.208393738
839.053772,0.208459243
837.9616089,0.20669432
837.0055542,0.20692429
836.0491333,0.204743892
834.9555664,0.202257589
833.998291,0.200754866
833.0405884,0.198562056
831.9456177,0.196127817
830.9871216,0.193693206
830.0281982,0.19113259
828.9318237,0.188262194
827.9720459,0.185648635
827.0119019,0.183349207
826.0513916,0.181127131
824.953186,0.179615021
823.9917603,0.176871821
823.0300293,0.175004393
822.0678711,0.173862487
820.9678345,0.171892077
820.0048218,0.170384392
819.0414429,0.168186292
817.9400024,0.167476386
816.9758301,0.16577588
816.0112305,0.163932934
815.0462646,0.163186491
813.9429932,0.162184462
812.9771729,0.161224708
812.0109863,0.160145864
811.0444336,0.159298316
809.9393311,0.157288879
808.9719849,0.158028826
808.0042114,0.156805828
807.0360718,0.155745074
806.0675659,0.155400485
804.9602051,0.154232293
803.9908447,0.153323606
803.0211792,0.152288631
802.0510864,0.151408538
800.9418945,0.150739625
799.9710083,0.150573909
798.9996948,0.148755848
798.0280762,0.149004936
797.0560303,0.147875354
795.9446411,0.147484735
794.9718018,0.146342084
793.9985962,0.145924941
793.0250244,0.145441771
792.0510254,0.145403892
790.9375,0.144910932
789.9627075,0.144132614
788.9875488,0.144430772
788.0120239,0.14333722
787.0361938,0.143388107
786.0599365,0.143466845
784.9437256,0.143437952
783.9666748,0.143275291
782.9892578,0.145154655
782.0114746,0.144571722
781.0333252,0.14528513
780.0547485,0.144759715
778.9359741,0.145904735
777.956665,0.146518141
776.9769897,0.146043554
775.9969482,0.14737922
775.0165405,0.148058087
774.0357056,0.147833109
773.0545654,0.149159506
771.9328003,0.149662063
770.9508667,0.149610549
769.9685669,0.149961188
768.9859009,0.150947452
768.0029297,0.151723251
767.0195313,0.151277676
766.0357666,0.151663825
765.0516357,0.152153611
764.0671997,0.151949778
762.9416504,0.152304322
761.9564209,0.152869061
760.9707642,0.152937308
759.9848022,0.152826816
758.9985352,0.153447881
758.0118408,0.154424444
757.0247803,0.154238939
756.0374146,0.155230403
755.0496216,0.155592859
754.0615234,0.155640602
752.9318237,0.156778798
751.9429321,0.157175407
750.9537354,0.15825893
749.9641724,0.158503398
748.9742432,0.159124166
747.9839478,0.159294322
746.9932861,0.160375968
746.0023193,0.160830945
745.0109253,0.161313608
744.0192261,0.161771789
743.0272217,0.162773535
742.03479,0.163146719
741.0420532,0.162668303
740.0489502,0.163490459
739.055481,0.163434759
738.0617065,0.163607746
737.0675659,0.163527206
735.9309692,0.163036078
734.9360962,0.162893608
733.9408569,0.162827507
732.9452515,0.162825212
731.9493408,0.162418321
730.9530029,0.162636414
729.9564209,0.16214554
728.9594727,0.161829472
727.9621582,0.161676571
726.9644775,0.162048355
725.9664917,0.160987034
724.9681396,0.161590517
723.9694824,0.161097527
722.970459,0.160562128
721.9710693,0.160476193
720.9713745,0.160664871
719.9713135,0.160885453
718.9709473,0.160519943
717.9702148,0.160914928
716.9691162,0.160830647
715.9677124,0.16073978
714.9660034,0.16127263
713.9639282,0.161469951
712.9614868,0.162207708
711.9587402,0.162627116
710.9556274,0.163245663
709.9522095,0.163844407
708.9484253,0.164895862
707.9443359,0.165895671
706.9399414,0.166858748
705.9351807,0.167866781
704.9300537,0.168884873
704.0682983,0.169858739
703.062561,0.170958147
702.0565186,0.171965644
701.0501709,0.173075795
700.043457,0.174116507
699.036377,0.17474775
698.0290527,0.175585985
697.0213013,0.176566184
696.0133057,0.177150041
695.0049438,0.17809087
693.9962769,0.178662092
692.9872437,0.179542571
691.9779053,0.179870635
690.9682617,0.180808678
689.958252,0.180903718
688.947937,0.182443723
687.9373169,0.183233053
687.0707397,0.183970958
686.0595093,0.186190575
685.0479736,0.188040629
684.0360718,0.189878121
683.0238037,0.192117095
682.0112915,0.194588512
680.9984131,0.197764754
679.9852295,0.20079495
678.9717407,0.204409421
677.9579468,0.207310051
676.9437866,0.211251289
675.9293213,0.215125993
675.0595093,0.217981339
674.0444336,0.22107017
673.0291138,0.224571824
672.0133667,0.227538392
670.9973755,0.23053816
669.9810791,0.233003914
668.9644165,0.234539375
667.9474487,0.235680044
666.9301758,0.237136528
666.0579834,0.237214506
665.0401001,0.237732634
664.0219727,0.237287462
663.003479,0.237691462
661.9846802,0.236811712
660.9655762,0.237466097
659.946106,0.237488136
659.0720825,0.237946421
658.052063,0.238933027
657.0317993,0.239836425
656.0111694,0.241320878
654.9902344,0.242729276
653.9689941,0.243205488
652.9474487,0.244301081
652.0715942,0.245076567
651.0494385,0.245232761
650.0270386,0.244895831
649.0042725,0.243730187
647.9812622,0.242589429
646.9578857,0.240214542
645.9342041,0.237899765
645.0565796,0.236110374
644.0323486,0.232418016
643.0078125,0.229022592
641.9829712,0.225535274
640.9578857,0.22203584
639.9324341,0.21927841
639.0532227,0.216476113
638.0272827,0.212768227
637.0009766,0.209795073
635.9743652,0.207093686
634.9474487,0.20442754
634.0670166,0.202777311
633.0395508,0.200697675
632.0118408,0.199381784
630.9837646,0.197934061
629.9554443,0.196830511
628.9267578,0.196216106
628.0448608,0.195798665
627.015625,0.195551127
625.986145,0.195135579
624.9563599,0.195484534
624.0734863,0.195772991
623.0431519,0.196323499
622.0125122,0.197246835
620.9815674,0.198132902
619.9503784,0.199341267
619.0662231,0.200175703
618.0344849,0.201904044
617.0023804,0.20324406
615.9700928,0.205344021
614.937439,0.207022175
614.052063,0.208653227
613.0189209,0.210669562
611.9854736,0.212730587
610.9517212,0.215771452
610.0653687,0.217808485
609.0311279,0.220285282
607.996521,0.223434508
606.9616699,0.226649091
605.9265137,0.230786383
605.0390015,0.233722642
604.0033569,0.238216117
602.9674072,0.242357835
601.9311523,0.247802541
601.0427246,0.252353042
600.0059204,0.257938594
598.9688721,0.264299721
597.9315186,0.270460844
597.0421753,0.275555402
596.0042725,0.282997638
594.9661255,0.290560871
593.9277344,0.296170473
593.0374146,0.301140308
591.9984741,0.308534443
590.9592285,0.315370232
590.0682373,0.320731372
589.0285034,0.325738877
587.9884644,0.330616295
586.9481812,0.335612327
586.0562744,0.339654654
585.0154419,0.343708336
583.9743652,0.346538574
582.9329834,0.349366128
582.0401611,0.351371288
580.998291,0.353850961
579.9561157,0.356595784
579.0626221,0.359683156
578.0199585,0.363151044
576.9770508,0.367394775
575.9338379,0.371643007
575.0394287,0.374351472
573.9957275,0.377870649
572.9517822,0.381024927
572.0567017,0.381677598
571.012207,0.380978078
569.9674683,0.377875567
569.0717773,0.374140263
568.0264893,0.367388398
566.980957,0.357358038
565.9351807,0.34699285
565.0385742,0.33839491
563.9923096,0.327914357
562.9457397,0.317715019
562.0485229,0.309142411
561.0014648,0.299404562
559.9541626,0.29170233
559.0562744,0.28506583
558.0084839,0.277749389
556.9603882,0.271747768
556.0618286,0.268182188
555.0133057,0.263021946
553.9644775,0.257932544
553.0653076,0.253648996
552.0159912,0.24956429
550.9664307,0.246052072
550.0665894,0.243429288
549.0165405,0.240016565
547.9662476,0.237260327
547.0657959,0.235234037
546.0150146,0.233542576
544.9639893,0.23232846
544.0629272,0.23183316
543.0113525,0.230703548
541.9595947,0.229766727
541.0578613,0.229095578
540.0056152,0.229255781
538.953125,0.229547367
538.0507813,0.229838446
536.9978027,0.229723007
535.9445801,0.230018601
535.041626,0.230713233
533.987915,0.23091276
532.93396,0.231147796
532.0303955,0.232410505
530.9760132,0.23381567
530.0720215,0.235869378
529.0171509,0.236685216
527.9619751,0.237735495
527.057373,0.239795283
526.0018311,0.241742417
524.9459839,0.244002044
524.0407715,0.246507779
522.984436,0.24910067
521.9279175,0.251379162
521.0220947,0.252943933
519.9650879,0.255551577
519.0588989,0.257424802
518.0014648,0.259143621
516.9437256,0.261371911
516.0369263,0.262605578
514.9787598,0.26509437
514.0715942,0.267071635
513.0130005,0.268929422
511.9541321,0.270157278
511.0463562,0.271098256
509.9870605,0.271326393
508.9275208,0.271294713
508.019165,0.270089835
506.9591675,0.268825829
506.050415,0.266997576
504.9899902,0.264530957
503.9293213,0.262188941
503.019989,0.26048407
501.9588623,0.257908732
501.0491638,0.255791158
499.9876099,0.25319761
498.9258423,0.251195997
498.0155334,0.24998048
496.9533081,0.248322681
496.0426636,0.245902062
494.980011,0.245231256
494.0689697,0.244214445
493.0058594,0.243654728
491.9425354,0.241901293
491.0309448,0.240799621
489.9671936,0.240770698
489.0552063,0.240637809
487.9910278,0.239502847
486.9266052,0.238412395
486.0140686,0.239442289
484.9492493,0.239638791
484.0363464,0.238777116
482.9710693,0.239090875
482.0578003,0.240554392
480.9921265,0.242102131
479.9262085,0.244335875
479.0123901,0.246516734
477.9460449,0.249101684
477.0318604,0.252349526
475.9651184,0.255799323
475.0505676,0.259403318
473.9833984,0.26447165
473.068512,0.268318445
472.0009155,0.2733199
470.9331055,0.278419256
470.0176697,0.281969369
468.9494324,0.286198467
468.0336304,0.289899528
466.9650269,0.293062151
466.0488586,0.295598835
464.9798279,0.297287464
464.063324,0.298234791
462.993866,0.29918164
461.9242249,0.29998824
461.0071716,0.299982876
459.9371033,0.29917562
459.0197449,0.299260408
457.9492493,0.299002677
457.0315247,0.298300892
455.9606628,0.2970379
455.0426025,0.295323849
453.9713135,0.293243259
453.0529175,0.29133898
451.9812317,0.287800491
451.0625,0.285102516
449.9904175,0.281440496
449.0713501,0.278712869
447.9988708,0.27627793
446.9262085,0.273786217
446.0065918,0.271549761
444.9335327,0.26984632
444.0136108,0.268743664
442.940155,0.26759094
442.0198669,0.267013371
440.9460449,0.265745193
440.0254211,0.265649289
438.9512024,0.265716493
438.0302734,0.26557833
436.955658,0.266116321
436.0343933,0.266443193
434.9593811,0.267244309
434.0378113,0.267586142
432.9624329,0.268426389
432.0405273,0.269184142
430.9647522,0.270130128
430.042511,0.271255821
428.9663696,0.272536874
428.0438232,0.273807198
426.9673157,0.275257886
426.0444336,0.276931644
424.9675598,0.278939545
424.044342,0.280573547
422.9671021,0.283289999
422.0435791,0.285726607
420.9659424,0.287579149
420.0421143,0.291150808
418.9641113,0.29487747
418.0399475,0.298743933
416.9616089,0.303496748
416.0371399,0.306794107
414.9584045,0.310956091
414.0336304,0.314382523
412.9545288,0.318262041
412.0294495,0.321587324
410.9499817,0.323952317
410.0245972,0.325134367
408.9447937,0.327370584
408.0190735,0.329040647
406.9389038,0.330381453
406.0129089,0.331333935
404.932373,0.331959456
404.0060425,0.332210898
402.9251709,0.332759857
401.9985657,0.332920998
401.0718079,0.332483143
399.990387,0.332355738
399.0633545,0.331698954
397.9815979,0.330876738
397.0542297,0.330499053
395.9721375,0.330373108
395.0444946,0.330157101
393.9620361,0.330026388
393.0340881,0.331399858
391.9512939,0.331987947
391.0230408,0.333710045
389.9399109,0.335939556
389.0113831,0.337835282
387.9279175,0.34054482
386.9990845,0.343097925
386.0700989,0.345754743
384.986145,0.34841153
384.0568848,0.350495189
382.9725647,0.353904426
382.0430298,0.35728249
380.9584045,0.361024231
380.0285645,0.36424464
378.9436035,0.368722826
378.0134583,0.371539503
376.9281616,0.37508595
375.9977722,0.378175944
375.0672302,0.380411744
373.9814453,0.382710189
373.0506287,0.384200394
371.9645081,0.385924488
371.0334167,0.387012839
369.946991,0.387897402
369.015625,0.388999164
367.9288635,0.390450418
366.9971924,0.391760707
366.0654297,0.394375354
364.9782104,0.397647917
364.0461426,0.400479436
362.9585876,0.406422615
362.0262756,0.409435988
360.938385,0.416534096
360.0057983,0.42249617
359.0730896,0.429156929
357.9847412,0.436679512
357.0517578,0.44561851
355.9631042,0.455005616
355.0298462,0.464239597
353.940918,0.474388599
353.0073853,0.482190073
352.0737305,0.494770974
350.984314,0.505702019
350.050415,0.514661551
348.9606934,0.522880733
348.0265198,0.528902352
346.9364929,0.534851372
346.0020752,0.53684634
345.0675049,0.537397862
343.9770508,0.536349535
343.0422363,0.535549223
341.9514771,0.533178747
341.0164185,0.530935586
339.9253235,0.528313458
338.9900208,0.526147366
338.0545654,0.524706662
336.9630737,0.523327291
336.0273743,0.523191214
334.9355774,0.524225354
333.9996338,0.525498092
333.0635681,0.527702391
331.971344,0.533112049
331.0350342,0.537759662
329.9425049,0.543743134
329.0059509,0.548339248
328.0692749,0.552555621
326.9763489,0.558652937
326.0394287,0.563214004
324.9461975,0.56649214
324.0090332,0.568207741
323.0717468,0.570013404
321.9781189,0.574146509
321.0405884,0.57727766
319.9466858,0.579913318
319.0089111,0.581294417
318.0710449,0.584947884
316.9767151,0.589723945
316.0386047,0.594238341
314.9440002,0.598107576
314.0056458,0.603640556
313.0671997,0.609030783
311.972168,0.617072344
311.0334778,0.625187457
309.9382019,0.633135974
308.9992981,0.640226305
308.0602417,0.645732105
306.9645691,0.655707955
306.0252991,0.661328197
304.9293823,0.667620361
303.9898682,0.67218858
303.0502625,0.677406013
301.953949,0.684907079
301.0141296,0.695086539
300.0741882,0.708276033
298.977478,0.729335308
298.037323,0.751337349
296.9403381,0.792884827
295.999939,0.842269659
295.0594788,0.900442302
293.9620972,0.975993872
293.0213928,1.048599005
291.9237976,1.181685686
290.9828796,1.304252267
290.0418396,1.417206883
288.9438477,1.57507503
288.0026245,1.714784265
287.0612793,1.920206547
285.9629211,2.138228655
285.0213623,2.333282471
283.92276,2.546862364
282.9809875,2.765027285
282.0391235,2.99058485
280.9401245,3.271406651
279.9980469,3.36693716
279.0558777,3.801968098
277.956543,3.802110195
277.0141602,3.829923153
276.0716858,3.942346096
274.9719849,4.001614571
274.0292969,3.956044674
272.9293823,10
271.9864807,4.297701359
271.0434875,4.034779072
269.9432373,4.531726837
269.0000305,4.530757904
268.0567627,10
266.9561462,4.448096275
266.0126343,4.688156128
265.0690613,10
263.9681091,4.322001934
263.0243225,4.177630901
261.9231567,10
260.9791565,10
260.0350952,10
258.9335938,4.069550037
257.9893188,4.241591454
257.0449829,3.819156885
255.9431152,10
254.9985809,10
254.0539398,4.274326324
252.951767,4.295456409
252.0069427,4.416528702
251.0620422,10
249.9597778,10
249.0203094,10
247.9241638,10
246.9845276,4.377758503
246.0447998,5.430674076
244.9483337,10
244.0084229,3.985043287
243.0684204,3.732587337
241.9716492,3.590843201
241.0314789,3.453212023
239.934494,3.299777985
238.9941406,3.230857372
238.0536957,3.194736481
236.9564056,3.025677443
236.0157928,3.083441496
235.0750885,3.050103903
233.9775085,3.070197821
233.0366364,3.186235189
231.9388428,3.178776979
230.9978027,3.275438786
230.0566711,3.335207462
228.9585876,3.259949207
228.0172882,3.59373951
227.0759125,3.715323925
225.9775391,3.782043457
225.0359955,4.102308273
223.9374237,4.132537842
222.9957123,4.460412979
222.0539246,4.164998531
220.9550629,10
220.0131073,4.443464279
219.0710754,3.979229689
217.9719543,4.225449085
217.0297546,3.916882753
215.9304352,3.890547037
214.9880829,10
214.0456543,4.328649521
212.9460602,4.183800697
212.0034637,4.016373158
211.0608063,3.790446758
209.9609375,3.649629116
209.0181274,3.75824666
208.0752258,3.698649645
206.9750977,3.339413881
206.0320587,4.642166138
204.9317474,3.944842577
203.9885406,3.654135942
203.0452728,3.493417978
201.9447021,3.309406519
201.0012817,3.145830393
200.0578003,3.904301405